N=16;
Point(1) = {0, 0, 0};
Extrude{2, 0, 0} {Point{1} ; Layers{N, 1}; }
Extrude{0, 2, 0} {Line{1} ; Layers{N, 1}; Recombine;}
Extrude{0, 0, 2} {Surface{5} ; Layers{N, 1}; Recombine;}

Physical Volume(10001) = {1};
Physical Surface(994) = {5};
Physical Surface(995) = {14};
Physical Surface(996) = {18};
Physical Surface(997) = {22};
Physical Surface(998) = {26};
Physical Surface(999) = {27};
